8 データクリーニングと主要関数 | 疫学のための R ハンドブック
…
           # 2回目のアウトブレイクだけを残すようにフィルタリングする
          date_onset > as.Date("2013-06-01") | (is.na(date_onset) & !hospital %in% c("Hospital A", "Hospital B")))

8.12 行単位の計算

行内で計算を行いたい場合は、dplyr の rowwise() を利用することができます。例えば、以下のコードでは rowwise() を使用し、ラインリストの各行について、値が “yes” である指定された症状の列の数を合計する新しい列を作成しています。rowwise() は本質的には特殊な group_by() であるため、終わったら ungroup() を使うのがベストです（詳細は、データのグループ化 の章を参照ください）。

linelist %>%
  rowwise() %>%
  mutate(num_symptoms = sum(c(fever, chills, cough, aches, vomit) == "yes")) %>% 
  ungroup() %>% 
  select(fever, chills, cough, aches, vomit, num_symptoms) # 表示のため

## # A tibble: 5,888 × 6
##    fever chills cough aches vomit num_symptoms
##    <chr> <chr>  <chr> <chr> <chr>        <int>
##  1 no    no     yes   no    yes              2
##  2 <NA>  <NA>   <NA>  <NA>  <NA>            NA
##  3 <NA>  <NA>   <NA>  <NA>  <NA>            NA
##  4 no    no     no    no    no               0
##  5 no    no     yes   no    yes              2
##  6 no    no     yes   no    yes              2
##  7 <NA>  <NA>   <NA>  <NA>  <NA>            NA
##  8 no    no     yes   no    yes              2
##  9 no    no     yes   no    yes              2
## 10 no    no     yes   no    no               1
## # … with 5,878 more rows
…
列指定の基準を dplyr の c_across() の中に入れます。これは、c_across（ドキュメントはこちら）が、特に rowwise() と連動するように設計されているからです。例えば、次のようなコードです。

rowwise() を適用して、各行の中で以下の演算（sum()）が適用されます（列全体の合計ではありません）。

新しい列 num_NA_dates を作成します。これは、各行について、is.na() が TRUE と評価された列 （列名に “date” を含むもの） の数として定義されます（これらはデータが欠損しています）。

ungroup() により、後続のステップで rowwise() の影響を取り除きます。

linelist %>%
  rowwise() %>%
  mutate(num_NA_dates = sum(is.na(c_across(contains("date"))))) %>% 
  ungroup() %>% 
  select(num_NA_dates, contains("date")) # for display

## # A tibble: 5,888 × 5
##    num_NA_dates date_infection date_onset date_hospitalisation date_outcome
##           <int> <date>         <date>     <date>               <date>      
##  1            1 2014-05-08     2014-05-13 2014-05-15           NA          
##  2            1 NA             2014-05-13 2014-05-14           2014-05-18  
##  3            1 NA             2014-05-16 2014-05-18           2014-05-30  
##  4            1 2014-05-04     2014-05-18 2014-05-20           NA          
##  5            0 2014-05-18     2014-05-21 2014-05-22           2014-05-29  
##  6            0 2014-05-03     2014-05-22 2014-05-23           2014-05-24  
##  7            0 2014-05-22     2014-05-27 2014-05-29           2014-06-01  
##  8            0 2014-05-28     2014-06-02 2014-06-03           2014-06-07  
##  9            1 NA             2014-06-05 2014-06-06           2014-06-18  
## 10            1 NA             2014-06-05 2014-06-07           2014-06-09  
## # … with 5,878 more rows

また、max() のような他の関数を使用し、各行の最新または直近の日付を取得することもできます。

linelist %>%
  rowwise() %>%
  mutate(latest_date = max(c_across(contains("date")), na.rm=T)) %>% 
  ungroup() %>% 
  select(latest_date, contains("date"))  # for display

## # A tibble: 5,888 × 5
##    latest_date date_infection date_onset date_hospitalisation date_outcome
##    <date>      <date>         <date>     <date>               <date>      
##  1 2014-05-15  2014-05-08     2014-05-13 2014-05-15           NA          
##  2 2014-05-18  NA             2014-05-13 2014-05-14           2014-05-18  
##  3 2014-05-30  NA             2014-05-16 2014-05-18           2014-05-30  
##  4 2014-05-20  2014-05-04     2014-05-18 2014-05-20           NA          
##  5 2014-05-29  2014-05-18     2014-05-21 2014-05-22           2014-05-29  
##  6 2014-05-24  2014-05-03     2014-05-22 2014-05-23           2014-05-24  
##  7 2014-06-01  2014-05-22     2014-05-27 2014-05-29           2014-06-01  
##  8 2014-06-07  2014-05-28     2014-06-02 2014-06-03           2014-06-07  
##  9 2014-06-18  NA             2014-06-05 2014-06-06           2014-06-18  
## 10 2014-06-09  NA             2014-06-05 2014-06-07           2014-06-09  
## # … with 5,878 more rows
…
