25 接触者の追跡 | 疫学のための R ハンドブック
…
他にも、感染者と接触者両方の年齢が含まれている Go.Data の関連データ（relationships データセット）を使用すると、感染者と接触者の年齢層の違いを表す人口ピラミッドを作成することもできます。関連データを用いて人口ピラミッドを作成する場合は、年齢変数をカテゴリー化し、数字型から因子（ファクタ）型にする必要があります（詳しくは、データクリーニングと主要関数の章を参照ください）。また、ggplot2 パッケージで図をプロットしやすくするために、データを縦型（long型）に変換する必要があります（詳細は、データの縦横変換をご覧ください）。

relation_age <- relationships %>% 
  select(source_age, target_age) %>% 
  transmute(                              # transmute() は mutate() と基本は同じだが、言及されていないすべての列を排除する機能を含む
    source_age_class = epikit::age_categories(source_age, breakers = seq(0, 80, 5)),
    target_age_class = epikit::age_categories(target_age, breakers = seq(0, 80, 5)),
    ) %>% 
  pivot_longer(cols = contains("class"), names_to = "category", values_to = "age_class")  # データを縦型（long 型）に変換する

relation_age

## # A tibble: 200 × 2
##    category         age_class
##    <chr>            <fct>    
##  1 source_age_class 80+      
##  2 target_age_class 15-19    
##  3 source_age_class <NA>     
##  4 target_age_class 50-54    
##  5 source_age_class <NA>     
##  6 target_age_class 20-24    
##  7 source_age_class 30-34    
##  8 target_age_class 45-49    
##  9 source_age_class 40-44    
## 10 target_age_class 30-34    
## # … with 190 more rows
…
接触者を見つけるための疫学調査の質や、市民がどの程度公衆衛生施策を遵守しているかを評価するための重要な指標として、感染者一人当たりの接触者数があげられます。

データ構造にもよりますが、すべての感染者と接触者を含むデータセットがあれば、感染者一人当たりの接触者数を算出し、評価を行うことができます。Go.Data のデータでは、関連データ（relationships データセット）に、感染者（sources）と接触者（targets）の関連に関する情報が含まれています。

関連データ（relationships データセット）では、各行が接触者の記録を示し、感染元となった感染者についての情報が記載されています。このデータセットには、複数の感染者と関連している接触者はありませんが、もし複数の感染者と関連している接触者がいる場合には、そのような接触者データを精査し、事前に処理を行う必要があります（この章では触れていません）。

まず、感染者一人当たりの接触者数を算出し、データフレーム（data frame）として保存します。

contacts_per_case <- relationships %>% 
  count(source_visualid)

contacts_per_case

## # A tibble: 23 × 2
##    source_visualid     n
##    <chr>           <int>
##  1 CASE-2020-0001     13
##  2 CASE-2020-0002      5
##  3 CASE-2020-0003      2
##  4 CASE-2020-0004      4
##  5 CASE-2020-0005      5
##  6 CASE-2020-0006      3
##  7 CASE-2020-0008      3
##  8 CASE-2020-0009      3
##  9 CASE-2020-0010      3
## 10 CASE-2020-0012      3
## # … with 13 more rows
…
