13 データのグループ化 | 疫学のための R ハンドブック
…
dplyr の group_by() は、指定された列の値によって、行をグループ化する関数です。複数の列が指定されている場合は、列の値の組み合わせによって、行がグループ化されます。それぞれの一意の値（または値の組み合わせ）でグループが構成されます。データセットがグループ化された後は、データセットの変更や計算は各グループ内で実行されます。

たとえば、次のコマンドは linelist を outcome 列の値で行をグループ化し、出力結果を新しいデータフレーム ll_by_outcome として保存します。グループ化する列は group_by() の括弧内に書きます。

ll_by_outcome <- linelist %>% 
  group_by(outcome)

group_by() を実行した後も、データセットには目に見える変化がないことに注意してください。 「グループ化された」データフレームに mutate()、 summarise()、 arrange() などの別の dplyr 関数を適用するまで、目に見える変化はありません。

ただし、データフレームを print() で出力すると、グループ化を「見る」ことができます。出力されたデータフレームを確認すると、それが tibble 型のオブジェクト に変換されていることがわかります。また、グループ化に使用された列名ならびにグループの数がヘッダー行のすぐ上に表示されています。

# 表示して、適用されたグループ化を確認
ll_by_outcome

## # A tibble: 5,888 × 30
## # Groups:   outcome [3]
##    case_id generation date_inf…¹ date_onset date_hos…² date_out…³ outcome gender
##    <chr>        <dbl> <date>     <date>     <date>     <date>     <chr>   <chr> 
##  1 5fe599           4 2014-05-08 2014-05-13 2014-05-15 NA         <NA>    m     
##  2 8689b7           4 NA         2014-05-13 2014-05-14 2014-05-18 Recover f     
##  3 11f8ea           2 NA         2014-05-16 2014-05-18 2014-05-30 Recover m     
##  4 b8812a           3 2014-05-04 2014-05-18 2014-05-20 NA         <NA>    f     
##  5 893f25           3 2014-05-18 2014-05-21 2014-05-22 2014-05-29 Recover m     
##  6 be99c8           3 2014-05-03 2014-05-22 2014-05-23 2014-05-24 Recover f     
##  7 07e3e8           4 2014-05-22 2014-05-27 2014-05-29 2014-06-01 Recover f     
##  8 369449           4 2014-05-28 2014-06-02 2014-06-03 2014-06-07 Death   f     
##  9 f393b4           4 NA         2014-06-05 2014-06-06 2014-06-18 Recover m     
## 10 1389ca           4 NA         2014-06-05 2014-06-07 2014-06-09 Death   f     
## # … with 5,878 more rows, 22 more variables: age <dbl>, age_unit <chr>,
## #   age_years <dbl>, age_cat <fct>, age_cat5 <fct>, hospital <chr>, lon <dbl>,
## #   lat <dbl>, infector <chr>, source <chr>, wt_kg <dbl>, ht_cm <dbl>,
## #   ct_blood <dbl>, fever <chr>, chills <chr>, cough <chr>, aches <chr>,
## #   vomit <chr>, temp <dbl>, time_admission <chr>, bmi <dbl>,
## #   days_onset_hosp <dbl>, and abbreviated variable names ¹​date_infection,
## #   ²​date_hospitalisation, ³​date_outcome
…
総数を追加する

count() と summarise() とは対照的に、add_count() を使用すると、データフレーム内の他のすべての列を保持しつつ、グループごとの行数を含む新しい列 n を追加できます。

各グループに含まれる行数が新しい列 n に出力され、それぞれグループの各行に表示されます。出力結果を確認するため、この新しい列 n 列を追加した後、見やすくなるように列を並べ替えます。他の例については、本章後半の グループ化したデータを変換する のセクションを参照してください。

linelist %>% 
  as_tibble() %>%                   # 出力が綺麗になるようにtibbleに変換
  add_count(hospital) %>%           # 病院ごとのカウント列n を追加
  select(hospital, n, everything()) # デモ目的に列を並び替え

## # A tibble: 5,888 × 31
##    hospital        n case_id gener…¹ date_inf…² date_onset date_hos…³ date_out…⁴
##    <chr>       <int> <chr>     <dbl> <date>     <date>     <date>     <date>    
##  1 Other         885 5fe599        4 2014-05-08 2014-05-13 2014-05-15 NA        
##  2 Missing      1469 8689b7        4 NA         2014-05-13 2014-05-14 2014-05-18
##  3 St. Mark's…   422 11f8ea        2 NA         2014-05-16 2014-05-18 2014-05-30
##  4 Port Hospi…  1762 b8812a        3 2014-05-04 2014-05-18 2014-05-20 NA        
##  5 Military H…   896 893f25        3 2014-05-18 2014-05-21 2014-05-22 2014-05-29
##  6 Port Hospi…  1762 be99c8        3 2014-05-03 2014-05-22 2014-05-23 2014-05-24
##  7 Missing      1469 07e3e8        4 2014-05-22 2014-05-27 2014-05-29 2014-06-01
##  8 Missing      1469 369449        4 2014-05-28 2014-06-02 2014-06-03 2014-06-07
##  9 Missing      1469 f393b4        4 NA         2014-06-05 2014-06-06 2014-06-18
## 10 Missing      1469 1389ca        4 NA         2014-06-05 2014-06-07 2014-06-09
## # … with 5,878 more rows, 23 more variables: outcome <chr>, gender <chr>,
## #   age <dbl>, age_unit <chr>, age_years <dbl>, age_cat <fct>, age_cat5 <fct>,
## #   lon <dbl>, lat <dbl>, infector <chr>, source <chr>, wt_kg <dbl>,
## #   ht_cm <dbl>, ct_blood <dbl>, fever <chr>, chills <chr>, cough <chr>,
## #   aches <chr>, vomit <chr>, temp <dbl>, time_admission <chr>, bmi <dbl>,
## #   days_onset_hosp <dbl>, and abbreviated variable names ¹​generation,
## #   ²​date_infection, ³​date_hospitalisation, ⁴​date_outcome
…
hospital 列でラインリストをグループ化する

各病院グループ内で date_hospitalisation 列を最新の日付から古い日付へ降順で並べ替える

スライスして各病院から最初の 5 行を抽出する

linelist %>%
  group_by(hospital) %>%
  arrange(hospital, date_hospitalisation) %>%
  slice_head(n = 5) %>% 
  arrange(hospital) %>%                            # 表示用
  select(case_id, hospital, date_hospitalisation)  # 表示用

## # A tibble: 30 × 3
## # Groups:   hospital [6]
##    case_id hospital          date_hospitalisation
##    <chr>   <chr>             <date>              
##  1 20b688  Central Hospital  2014-05-06          
##  2 d58402  Central Hospital  2014-05-10          
##  3 b8f2fd  Central Hospital  2014-05-13          
##  4 acf422  Central Hospital  2014-05-28          
##  5 275cc7  Central Hospital  2014-05-28          
##  6 d1fafd  Military Hospital 2014-04-17          
##  7 974bc1  Military Hospital 2014-05-13          
##  8 6a9004  Military Hospital 2014-05-13          
##  9 09e386  Military Hospital 2014-05-14          
## 10 865581  Military Hospital 2014-05-15          
## # … with 20 more rows
…
slice() の他の例と詳細をご覧になりたい方は、重複データの排除 を参照ください。

グループの大きさでフィルタリングする

add_count() は、元のデータに列 n を追加し、括弧内で指定した行のグループごとの行数を計算する関数です。

以下の例では、add_count() が hospital 列に適用され、新しい列 n の各行の値は、その行の病院の総症例数となります。n 列の値がどのように繰り返されるているかに注意してください。以下の例の列名 n は、 add_count() 内の name = を使用して変更できます。結果をわかりやすく表示するため、 select() を使用して列を並べ替えています。

linelist %>% 
  as_tibble() %>% 
  add_count(hospital) %>%          # 「この行と同じ病院に入院した行数」を追加する
  select(hospital, n, everything())

## # A tibble: 5,888 × 31
##    hospital        n case_id gener…¹ date_inf…² date_onset date_hos…³ date_out…⁴
##    <chr>       <int> <chr>     <dbl> <date>     <date>     <date>     <date>    
##  1 Other         885 5fe599        4 2014-05-08 2014-05-13 2014-05-15 NA        
##  2 Missing      1469 8689b7        4 NA         2014-05-13 2014-05-14 2014-05-18
##  3 St. Mark's…   422 11f8ea        2 NA         2014-05-16 2014-05-18 2014-05-30
##  4 Port Hospi…  1762 b8812a        3 2014-05-04 2014-05-18 2014-05-20 NA        
##  5 Military H…   896 893f25        3 2014-05-18 2014-05-21 2014-05-22 2014-05-29
##  6 Port Hospi…  1762 be99c8        3 2014-05-03 2014-05-22 2014-05-23 2014-05-24
##  7 Missing      1469 07e3e8        4 2014-05-22 2014-05-27 2014-05-29 2014-06-01
##  8 Missing      1469 369449        4 2014-05-28 2014-06-02 2014-06-03 2014-06-07
##  9 Missing      1469 f393b4        4 NA         2014-06-05 2014-06-06 2014-06-18
## 10 Missing      1469 1389ca        4 NA         2014-06-05 2014-06-07 2014-06-09
## # … with 5,878 more rows, 23 more variables: outcome <chr>, gender <chr>,
## #   age <dbl>, age_unit <chr>, age_years <dbl>, age_cat <fct>, age_cat5 <fct>,
## #   lon <dbl>, lat <dbl>, infector <chr>, source <chr>, wt_kg <dbl>,
## #   ht_cm <dbl>, ct_blood <dbl>, fever <chr>, chills <chr>, cough <chr>,
## #   aches <chr>, vomit <chr>, temp <dbl>, time_admission <chr>, bmi <dbl>,
## #   days_onset_hosp <dbl>, and abbreviated variable names ¹​generation,
## #   ²​date_infection, ³​date_hospitalisation, ⁴​date_outcome
…
  # 新しい列
  mutate(
    # 病院ごとの入院までの平均日数（小数点第1位を四捨五入）
    group_delay_admit = round(mean(days_onset_hosp, na.rm=T), 1),
    
    # 各行の遅延と病院の平均遅延の差（小数点以下第1位を四捨五入）
    diff_to_group     = round(days_onset_hosp - group_delay_admit, 1)) %>%
  
  # 特定の行のみを選択 - 表示の目的で
  select(case_id, hospital, days_onset_hosp, group_delay_admit, diff_to_group)

## # A tibble: 5,888 × 5
## # Groups:   hospital [6]
##    case_id hospital                             days_onset_hosp group_…¹ diff_…²
##    <chr>   <chr>                                          <dbl>    <dbl>   <dbl>
##  1 5fe599  Other                                              2      2       0  
##  2 8689b7  Missing                                            1      2.1    -1.1
##  3 11f8ea  St. Mark's Maternity Hospital (SMMH)               2      2.1    -0.1
##  4 b8812a  Port Hospital                                      2      2.1    -0.1
##  5 893f25  Military Hospital                                  1      2.1    -1.1
##  6 be99c8  Port Hospital                                      1      2.1    -1.1
##  7 07e3e8  Missing                                            2      2.1    -0.1
##  8 369449  Missing                                            1      2.1    -1.1
##  9 f393b4  Missing                                            1      2.1    -1.1
## 10 1389ca  Missing                                            2      2.1    -0.1
## # … with 5,878 more rows, and abbreviated variable names ¹​group_delay_admit,
## #   ²​diff_to_group
…
