43 Shiny で作るダッシュボード | 疫学のための R ハンドブック
…
ユーザーの入力に応じてデータを可視化する関数の作成

上記のリストは非常にわかりやすく、それほど難しいことではないはずです。ここで重要なのは、このプロセスのうち、どの部分が一度だけ実行される必要があり、どの部分がユーザーの入力に応じて実行される必要があるのかを考えることです。なぜなら、shiny アプリは一般的には、アプリが実行される前にコードの一部分が一度だけ実行されるためです。大部分のコードをこの一度だけ実行される部分に移動することができれば、アプリのパフォーマンスが大きく改善するでしょう。この例では、データとパッケージの読み込みと基本的なデータの加工は一度の実行しか必要ありません。そのため、これらのコードをサーバーロジック関数の外に置くことができます。この変更の意味するところは、サーバーロジック関数の中に書く必要なコードは、可視化に関するコードだけということです。まず、これらの構成要素をすべてひとつのスクリプトとして開発してみましょう。ただし、今回は関数を使ってデータを可視化しているので、可視化をする関数のコードをサーバーロジック関数の外に置くことで、アプリの実行時に関数が実行環境中に存在するようにすることもできます。

最初に、データを読み込みましょう。現在、新しいプロジェクトで作業を行っており、このプロジェクト構造を整然なままにしたいので、新しい data というディレクトリを作成してマラリアデータをそこに保存しましょう。下記のコードは、アプリの構造を整える際に最終的に削除する予定のテスト用スクリプトであり、以下のように実行します。

pacman::p_load("tidyverse", "lubridate")

# データの読み込み
malaria_data <- rio::import(here::here("data", "malaria_facility_count_data.rds")) %>% 
  as_tibble()

print(malaria_data)

## # A tibble: 3,038 × 10
##    locat…¹ data_date  submitte…² Provi…³ Distr…⁴ malar…⁵ malar…⁶ malar…⁷ malar…⁸
##    <chr>   <date>     <date>     <chr>   <chr>     <int>   <int>   <int>   <int>
##  1 Facili… 2020-08-11 2020-08-12 North   Spring       11      12      23      46
##  2 Facili… 2020-08-11 2020-08-12 North   Bolo         11      10       5      26
##  3 Facili… 2020-08-11 2020-08-12 North   Dingo         8       5       5      18
##  4 Facili… 2020-08-11 2020-08-12 North   Bolo         16      16      17      49
##  5 Facili… 2020-08-11 2020-08-12 North   Bolo          9       2       6      17
##  6 Facili… 2020-08-11 2020-08-12 North   Dingo         3       1       4       8
##  7 Facili… 2020-08-10 2020-08-12 North   Dingo         4       0       3       7
##  8 Facili… 2020-08-10 2020-08-12 North   Bolo         15      14      13      42
##  9 Facili… 2020-08-09 2020-08-12 North   Bolo         11      11      13      35
## 10 Facili… 2020-08-08 2020-08-12 North   Bolo         19      15      15      49
## # … with 3,028 more rows, 1 more variable: newid <int>, and abbreviated
## #   variable names ¹​location_name, ²​submitted_date, ³​Province, ⁴​District,
## #   ⁵​`malaria_rdt_0-4`, ⁶​`malaria_rdt_5-14`, ⁷​malaria_rdt_15, ⁸​malaria_tot

tidy な形のデータを使用するほうが作業しやすいため、このデータを縦持ちのデータに変換する必要があります。年齢群が列になり、ケースも別の列になる形です。データの縦横変換の章で学んだようにこの処理は簡単にできます。

malaria_data <- malaria_data %>%
  select(-newid) %>%
  pivot_longer(cols = starts_with("malaria_"), names_to = "age_group", values_to = "cases_reported")

print(malaria_data)

## # A tibble: 12,152 × 7
##    location_name data_date  submitted_date Province District age_group   cases…¹
##    <chr>         <date>     <date>         <chr>    <chr>    <chr>         <int>
##  1 Facility 1    2020-08-11 2020-08-12     North    Spring   malaria_rd…      11
##  2 Facility 1    2020-08-11 2020-08-12     North    Spring   malaria_rd…      12
##  3 Facility 1    2020-08-11 2020-08-12     North    Spring   malaria_rd…      23
##  4 Facility 1    2020-08-11 2020-08-12     North    Spring   malaria_tot      46
##  5 Facility 2    2020-08-11 2020-08-12     North    Bolo     malaria_rd…      11
##  6 Facility 2    2020-08-11 2020-08-12     North    Bolo     malaria_rd…      10
##  7 Facility 2    2020-08-11 2020-08-12     North    Bolo     malaria_rd…       5
##  8 Facility 2    2020-08-11 2020-08-12     North    Bolo     malaria_tot      26
##  9 Facility 3    2020-08-11 2020-08-12     North    Dingo    malaria_rd…       8
## 10 Facility 3    2020-08-11 2020-08-12     North    Dingo    malaria_rd…       5
## # … with 12,142 more rows, and abbreviated variable name ¹​cases_reported
…
# 地区毎の施設名
facility_list <- malaria_data %>%
  group_by(location_name, District) %>%
  summarise() %>% 
  ungroup()

変数の内容を確認してみましょう：

all_districts

## [1] "All"     "Spring"  "Bolo"    "Dingo"   "Barnard"

facility_list

## # A tibble: 65 × 2
##    location_name District
##    <chr>         <chr>   
##  1 Facility 1    Spring  
##  2 Facility 10   Bolo    
##  3 Facility 11   Spring  
##  4 Facility 12   Dingo   
##  5 Facility 13   Bolo    
##  6 Facility 14   Dingo   
##  7 Facility 15   Barnard 
##  8 Facility 16   Barnard 
##  9 Facility 17   Barnard 
## 10 Facility 18   Bolo    
## # … with 55 more rows
…
