37 感染連鎖 | 疫学のための R ハンドブック
…
epicontacts オブジェクトを表示してみると、linelist の case_id の列名が id に、case_id と infector の列名が from と to に変更されています。
この変更により一貫性が確保され、その後の処理、視覚化、分析の操作が容易になります。

## epicontacts オブジェクトを表示
epic

## 
## /// Epidemiological Contacts //
## 
##   // class: epicontacts
##   // 5,888 cases in linelist; 3,800 contacts; directed 
## 
##   // linelist
## 
## # A tibble: 5,888 × 30
##    id     generation date_infe…¹ date_onset date_hos…² date_out…³ outcome gender
##    <chr>       <dbl> <date>      <date>     <date>     <date>     <chr>   <chr> 
##  1 5fe599          4 2014-05-08  2014-05-13 2014-05-15 NA         <NA>    m     
##  2 8689b7          4 NA          2014-05-13 2014-05-14 2014-05-18 Recover f     
##  3 11f8ea          2 NA          2014-05-16 2014-05-18 2014-05-30 Recover m     
##  4 b8812a          3 2014-05-04  2014-05-18 2014-05-20 NA         <NA>    f     
##  5 893f25          3 2014-05-18  2014-05-21 2014-05-22 2014-05-29 Recover m     
##  6 be99c8          3 2014-05-03  2014-05-22 2014-05-23 2014-05-24 Recover f     
##  7 07e3e8          4 2014-05-22  2014-05-27 2014-05-29 2014-06-01 Recover f     
##  8 369449          4 2014-05-28  2014-06-02 2014-06-03 2014-06-07 Death   f     
##  9 f393b4          4 NA          2014-06-05 2014-06-06 2014-06-18 Recover m     
## 10 1389ca          4 NA          2014-06-05 2014-06-07 2014-06-09 Death   f     
## # … with 5,878 more rows, 22 more variables: age <dbl>, age_unit <chr>,
## #   age_years <dbl>, age_cat <fct>, age_cat5 <fct>, hospital <chr>, lon <dbl>,
## #   lat <dbl>, infector <chr>, source <chr>, wt_kg <dbl>, ht_cm <dbl>,
## #   ct_blood <dbl>, fever <chr>, chills <chr>, cough <chr>, aches <chr>,
## #   vomit <chr>, temp <dbl>, time_admission <chr>, bmi <dbl>,
## #   days_onset_hosp <dbl>, and abbreviated variable names ¹​date_infection,
## #   ²​date_hospitalisation, ³​date_outcome
## 
##   // contacts
## 
## # A tibble: 3,800 × 4
##    from   to     location   duration
##    <chr>  <chr>  <chr>         <int>
##  1 f547d6 5fe599 Community         5
##  2 f90f5f b8812a Community         5
##  3 11f8ea 893f25 Nosocomial        5
##  4 aec8ec be99c8 Nosocomial        9
##  5 893f25 07e3e8 Nosocomial        2
##  6 133ee7 369449 Nosocomial        2
##  7 996f3a 2978ac Nosocomial        9
##  8 133ee7 57a565 Nosocomial        5
##  9 37a6f6 fc15ef Nosocomial        6
## 10 9f6884 2eaa9a Nosocomial        3
## # … with 3,790 more rows
…
## 
## /// Epidemiological Contacts //
## 
##   // class: epicontacts
##   // 69 cases in linelist; 1,877 contacts; directed 
## 
##   // linelist
## 
## # A tibble: 69 × 30
##    id     generation date_infe…¹ date_onset date_hos…² date_out…³ outcome gender
##    <chr>       <dbl> <date>      <date>     <date>     <date>     <chr>   <chr> 
##  1 5fe599          4 2014-05-08  2014-05-13 2014-05-15 NA         <NA>    m     
##  2 893f25          3 2014-05-18  2014-05-21 2014-05-22 2014-05-29 Recover m     
##  3 2978ac          4 2014-05-30  2014-06-06 2014-06-08 2014-06-15 Death   m     
##  4 57a565          4 2014-05-28  2014-06-13 2014-06-15 NA         Death   m     
##  5 fc15ef          6 2014-06-14  2014-06-16 2014-06-17 2014-07-09 Recover m     
##  6 99e8fa          7 2014-06-24  2014-06-28 2014-06-29 2014-07-09 Recover m     
##  7 f327be          6 2014-06-14  2014-07-12 2014-07-13 2014-07-14 Death   m     
##  8 90e5fe          5 2014-06-18  2014-07-13 2014-07-14 2014-07-16 <NA>    m     
##  9 a47529          5 2014-06-13  2014-07-17 2014-07-18 2014-07-26 Death   m     
## 10 da8ecb          5 2014-06-20  2014-07-18 2014-07-20 2014-08-01 <NA>    m     
## # … with 59 more rows, 22 more variables: age <dbl>, age_unit <chr>,
## #   age_years <dbl>, age_cat <fct>, age_cat5 <fct>, hospital <chr>, lon <dbl>,
## #   lat <dbl>, infector <chr>, source <chr>, wt_kg <dbl>, ht_cm <dbl>,
## #   ct_blood <dbl>, fever <chr>, chills <chr>, cough <chr>, aches <chr>,
## #   vomit <chr>, temp <dbl>, time_admission <chr>, bmi <dbl>,
## #   days_onset_hosp <dbl>, and abbreviated variable names ¹​date_infection,
## #   ²​date_hospitalisation, ³​date_outcome
## 
##   // contacts
## 
## # A tibble: 1,877 × 4
##    from   to     location   duration
##    <chr>  <chr>  <chr>         <int>
##  1 11f8ea 893f25 Nosocomial        5
##  2 aec8ec be99c8 Nosocomial        9
##  3 893f25 07e3e8 Nosocomial        2
##  4 133ee7 369449 Nosocomial        2
##  5 996f3a 2978ac Nosocomial        9
##  6 133ee7 57a565 Nosocomial        5
##  7 37a6f6 fc15ef Nosocomial        6
##  8 9f6884 2eaa9a Nosocomial        3
##  9 b799eb bc2adf Nosocomial        7
## 10 5d9e4d 8bd1e8 Nosocomial        3
## # … with 1,867 more rows
…
